<?xml version="1.0" encoding="utf-8"?>
<!-- Generator: Adobe Illustrator 23.0.3, SVG Export Plug-In . SVG Version: 6.00 Build 0)  -->
<svg version="1.1" id="Capa_1" xmlns="http://www.w3.org/2000/svg" xmlns:xlink="http://www.w3.org/1999/xlink" x="0px" y="0px"
	 viewBox="0 0 489.4 489.4" style="enable-background:new 0 0 489.4 489.4;" xml:space="preserve">
<path d="M212.6,304.4l24.1,24.1l85.3-85.3l-85.3-85.3l-24.1,24.1l44,44.2h-165v34.1h165L212.6,304.4z M364.6,89.6H125.7
	c-18.9,0-34.1,15.4-34.1,34.1V192h34.1v-68.2h238.9v238.9H125.7v-68.2H91.6v68.2c0,18.8,15.2,34.1,34.1,34.1h238.9
	c18.8,0,34.1-15.4,34.1-34.1V123.7C398.7,105,383.3,89.6,364.6,89.6z"/>
</svg>
